%YAML 1.1
%TAG !u! tag:unity3d.com,2011:
--- !u!114 &11400000
MonoBehaviour:
  m_ObjectHideFlags: 0
  m_CorrespondingSourceObject: {fileID: 0}
  m_PrefabInstance: {fileID: 0}
  m_PrefabAsset: {fileID: 0}
  m_GameObject: {fileID: 0}
  m_Enabled: 1
  m_EditorHideFlags: 0
  m_Script: {fileID: 11500000, guid: f57e5370501ea48c5bed60297a54355e, type: 3}
  m_Name: HyperspaceCooldownUpgrade
  m_EditorClassIdentifier: 
  _type: 8
  _color: {r: 0, g: 0.90588236, b: 1, a: 1}
  _basePrice: 20
